created,last_queried,id,script,keyword
2019-10-18T15:15:25.178689,2020-05-24T14:03:26.128612,1,s,陈一谘回忆录
2019-10-18T15:15:25.178689,2019-10-29T00:38:08.941767,2,s,贾庆林
2019-10-18T15:15:25.178689,2019-10-29T00:38:08.663406,3,s,宋彬彬
2019-10-18T15:15:25.178689,2019-10-29T00:38:04.979882,4,s,至宪党
2019-10-18T15:15:25.178689,2019-10-29T00:38:08.770072,5,s,团派
2019-10-18T15:15:25.178689,2019-10-29T00:38:08.103772,6,s,程文萨
2019-10-18T15:15:25.178689,2019-10-29T00:38:04.961553,7,s,周国聪
2019-10-18T15:15:25.178689,2019-10-29T00:38:08.127869,8,s,郭伯雄
2019-10-18T15:15:25.178689,2019-10-29T00:38:09.479351,9,s,邓卓棣
2019-10-18T15:15:25.178689,2019-10-29T00:38:08.339944,10,s,团中央
2019-10-18T15:15:25.178689,2019-10-29T00:38:06.399305,11,s,天葬
2019-10-18T15:15:25.178689,2019-10-29T00:38:08.430842,12,s,王乐泉
2019-10-18T15:15:25.178689,2019-10-29T00:38:07.582251,13,s,王力雄
2019-10-18T15:15:25.178689,2019-10-29T00:38:07.219755,14,s,贾甲
2019-10-18T15:15:25.178689,2019-10-29T00:38:09.023945,15,s,绿坝娘
2019-10-18T15:15:25.178689,2019-10-29T00:38:05.790053,16,s,马英九
2019-10-18T15:15:25.178689,2019-10-29T00:38:07.938329,17,s,中国民主党
2019-10-18T15:15:25.178689,2019-10-29T00:38:05.815556,18,s,台湾独立建国联盟
2019-10-18T15:15:25.178689,2019-10-29T00:38:09.380366,19,s,汶川大地震死难学生调查活动
2019-10-18T15:15:25.178689,2019-10-29T00:38:07.307883,20,s,杜导正
2019-10-18T15:15:25.178689,2021-03-23T07:15:44.514297,21,a,Tiananmen_Massacre
2019-10-18T15:15:25.178689,2019-10-29T00:38:08.237901,22,s,姜维平
2019-10-18T15:15:25.178689,2019-10-29T00:38:07.036783,23,s,观音法门
2019-10-18T15:15:25.178689,2020-05-24T14:03:30.243721,24,s,刘红薇
2019-10-18T15:15:25.178689,2019-10-29T00:38:07.276169,25,s,美国之音
2019-10-18T15:15:25.178689,2019-10-29T00:38:05.889294,26,s,大江大海一九四九
2019-10-18T15:15:25.178689,2019-10-29T00:38:06.011951,27,s,文炎
2019-10-18T15:15:25.178689,2019-10-29T00:38:05.473393,28,s,恶搞
2019-10-18T15:15:25.178689,2019-10-29T00:38:06.204008,29,s,64事件
2019-10-18T15:15:25.178689,2019-10-29T00:38:08.872506,30,s,韩东方
2019-10-18T15:15:25.178689,2019-10-29T00:38:05.150653,31,s,冉云飞
2019-10-18T15:15:25.178689,2019-10-29T00:38:08.332123,32,s,刘逸明
2019-10-18T15:15:25.178689,2019-10-29T00:38:08.404067,33,s,民运歌曲
2019-10-18T15:15:25.178689,2019-10-29T00:38:07.652879,34,s,齐志勇
2019-10-18T15:15:25.178689,2019-10-29T00:38:08.564919,35,s,李禄
2019-10-18T15:15:25.178689,2019-10-29T00:38:07.361975,36,s,浦志强
2019-10-18T15:15:25.178689,2019-10-29T00:38:05.739498,37,s,藏独
2019-10-18T15:15:25.178689,2019-10-29T00:38:07.452746,38,s,姚监复
2019-10-18T15:15:25.178689,2019-10-29T00:38:05.027653,39,s,炸药
2019-10-18T15:15:25.178689,2019-10-29T00:38:08.080566,40,s,邓正来
2019-10-18T15:15:25.178689,2019-10-29T00:38:08.230170,41,s,南周事件
2019-10-18T15:15:25.178689,2019-10-29T00:38:06.153922,42,s,六四事件
2019-10-18T15:15:25.178689,2019-10-29T00:38:08.754284,43,s,自由门
2019-10-18T15:15:25.178689,2019-10-29T00:38:07.100951,44,s,洪哲胜
2019-10-18T15:15:25.178689,2019-10-29T00:38:06.386360,45,s,陈世炬
2019-10-18T15:15:25.178689,2019-10-29T00:38:06.731890,46,s,贾阔
2019-10-18T15:15:25.178689,2019-10-29T00:38:06.810092,47,s,茉莉花革命
2019-10-18T15:15:25.178689,2019-10-29T00:38:09.008086,48,s,温如春
2019-10-18T15:15:25.178689,2019-10-29T00:38:08.260893,49,s,香港六四烛光晚会
2019-10-18T15:15:25.178689,2019-10-29T00:38:06.894970,50,s,蒋品超
2019-10-18T15:15:25.178689,2019-10-29T00:38:08.245992,51,s,89学运
2019-10-18T15:15:25.178689,2019-10-29T00:38:06.952116,52,s,突破网络审查
2019-10-18T15:15:25.178689,2019-10-29T00:38:05.053466,53,s,自由中国论坛
2019-10-18T15:15:25.178689,2019-10-29T00:38:08.301132,54,s,热比亚
2019-10-18T15:15:25.178689,2019-10-29T00:38:06.704230,55,s,中国天网人权事务中心
2019-10-18T15:15:25.178689,2019-10-29T00:38:07.029457,56,s,王丹_(民运人士)
2019-10-18T15:15:25.178689,2019-10-29T00:38:09.292861,57,s,中国茉莉花活动
2019-10-18T15:15:25.178689,2019-10-29T00:38:05.273069,58,s,谁是新中国
2019-10-18T15:15:25.178689,2019-10-29T00:38:06.886766,59,s,侯德建
2019-10-18T15:15:25.178689,2019-10-29T00:38:05.503808,60,s,买买提明·艾孜来提
2019-10-18T15:15:25.178689,2019-10-29T00:38:07.004249,61,s,刘延东
2019-10-18T15:15:25.178689,2019-10-29T00:38:07.688347,62,s,08宪章
2019-10-18T15:15:25.178689,2019-10-29T00:38:09.198086,63,a,WikiLeaks
2019-10-18T15:15:25.178689,2019-10-29T00:38:06.284611,64,s,齐桥桥
2019-10-18T15:15:25.178689,2019-10-29T00:38:07.564064,65,s,东突
2019-10-18T15:15:25.178689,2019-10-29T00:38:09.371834,66,s,中文网志年会
2019-10-18T15:15:25.178689,2019-10-29T00:38:06.261215,67,s,侯德健
2019-10-18T15:15:25.178689,2019-10-29T00:38:07.515960,68,s,三年自然灾害
2019-10-18T15:15:25.178689,2019-10-29T00:38:07.092703,69,s,新闻自由
2019-10-18T15:15:25.178689,2019-10-29T00:38:06.161429,70,s,新疆独立运动
2019-10-18T15:15:25.178689,2019-10-29T00:38:07.204461,71,s,博讯
2019-10-18T15:15:25.178689,2019-10-29T00:38:06.276587,72,s,敏感人士
2019-10-18T15:15:25.178689,2019-10-29T00:38:08.027277,73,a,East_Turkestan_Independence_Movement
2019-10-18T15:15:25.178689,2019-10-29T00:38:06.179200,74,s,天安门母亲
2019-10-18T15:15:25.178689,2019-10-29T00:38:08.142645,75,s,师涛
2019-10-18T15:15:25.178689,2019-10-29T00:38:09.071458,76,s,六四
2019-10-18T15:15:25.178689,2019-10-29T00:38:05.070406,77,s,江泽民
2019-10-18T15:15:25.178689,2020-05-24T14:03:31.328103,78,s,张伯笠
2019-10-18T15:15:25.178689,2019-10-29T00:38:07.956685,79,a,TOR
2019-10-18T15:15:25.178689,2019-10-29T00:38:06.333302,80,s,西藏流亡政府
2019-10-18T15:15:25.178689,2019-10-29T00:38:07.798305,81,s,西单民主墙
2019-10-18T15:15:25.178689,2019-10-29T00:38:07.234962,82,s,大屠杀列表
2019-10-18T15:15:25.178689,2019-10-29T00:38:06.235671,83,s,丁子霖
2019-10-18T15:15:25.178689,2019-10-29T00:38:07.499150,84,s,89民运
2019-10-18T15:15:25.178689,2019-10-29T00:38:07.790595,85,s,中共中央宣传部
2019-10-18T15:15:25.178689,2019-10-29T00:38:09.300487,86,s,全美中国学生学者自治联合会
2019-10-18T15:15:25.178689,2019-10-29T00:38:06.508444,87,s,希望之声国际广播电台
2019-10-18T15:15:25.178689,2019-10-29T00:38:06.517782,88,s,东土耳其斯坦解放组织
2019-10-18T15:15:25.178689,2019-10-29T00:38:05.458664,89,s,王姓
2019-10-18T15:15:25.178689,2019-10-29T00:38:09.494857,90,a,Liusishijian
2019-10-18T15:15:25.178689,2019-10-29T00:38:05.125488,91,s,学自联
2019-10-18T15:15:25.178689,2019-10-29T00:38:08.631069,92,s,徐才厚
2019-10-18T15:15:25.178689,2019-10-29T00:38:05.600573,93,s,华夏文摘
2019-10-18T15:15:25.178689,2019-10-29T00:38:09.565319,94,s,陆肆事件
2019-10-18T15:15:25.178689,2019-10-29T00:38:06.642179,95,s,65军
2019-10-18T15:15:25.178689,2019-10-29T00:38:08.623150,96,s,国际声援西藏运动
2019-10-18T15:15:25.178689,2019-10-29T00:38:07.820031,97,a,Jasmine_Revolution_in_China
2019-10-18T15:15:25.178689,2019-10-29T00:38:06.766997,98,s,2010年中国反日示威活动
2019-10-18T15:15:25.178689,2019-10-29T00:38:08.638648,99,s,杨佳袭警案
2019-10-18T15:15:25.178689,2019-10-29T00:38:08.324084,100,s,独立中文笔会
2019-10-18T15:15:25.178689,2019-10-29T00:38:06.959491,101,s,赵紫阳
2019-10-18T15:15:25.178689,2019-10-29T00:38:05.338535,102,s,王小丫
2019-10-18T15:15:25.178689,2019-10-29T00:38:08.521458,103,s,苏嘉全
2019-10-18T15:15:25.178689,2019-10-29T00:38:08.791226,104,s,台湾总统
2019-10-18T15:15:25.178689,2019-10-29T00:38:06.854757,105,s,王维林
2019-10-18T15:15:25.178689,2019-10-29T00:38:06.802150,106,s,李慎之
2019-10-18T15:15:25.178689,2019-10-29T00:38:07.766779,107,s,吴邦国
2019-10-18T15:15:25.178689,2019-10-29T00:38:05.840251,108,a,Rebiya_Kadeer
2019-10-18T15:15:25.178689,2019-10-29T00:38:06.467115,109,s,万里
2019-10-18T15:15:25.178689,2019-10-29T00:38:05.101735,110,s,乌鲁木齐七·五事件
2019-10-18T15:15:25.178689,2019-10-29T00:38:05.289714,111,s,无界网络
2019-10-18T15:15:25.178689,2019-10-29T00:38:09.502903,112,s,温影帝
2019-10-18T15:15:25.178689,2019-10-29T00:38:07.612149,113,s,李瑞环
2019-10-18T15:15:25.178689,2019-10-29T00:38:05.610767,114,s,西藏独立运动
2019-10-18T15:15:25.178689,2019-10-29T00:38:08.646264,115,s,盛雪
2019-10-18T15:15:25.178689,2019-10-29T00:38:06.119232,116,s,中国持不同政见者列表
2019-10-18T15:15:25.178689,2019-10-29T00:38:05.873094,117,s,胡温体制
2019-10-18T15:15:25.178689,2019-10-29T00:38:07.435360,118,s,晚年周恩来
2019-10-18T15:15:25.178689,2019-10-29T00:38:07.743378,119,s,2008年争取2012双普选大游行
2019-10-18T15:15:25.178689,2019-10-29T00:38:06.975030,120,s,金盾
2019-10-18T15:15:25.178689,2019-10-29T00:38:09.055077,121,s,天安门文件
2019-10-18T15:15:25.178689,2019-10-29T00:38:08.455944,122,s,1989年
2019-10-18T15:15:25.178689,2019-11-21T07:23:21.102544,123,s,李源潮
2019-10-18T15:15:25.178689,2019-10-29T00:38:09.307900,124,s,七一游行
2019-10-18T15:15:25.178689,2019-10-29T00:38:09.544332,125,a,Tokyo-Hot
2019-10-18T15:15:25.178689,2019-10-29T00:38:09.430881,126,s,汪洋
2019-10-18T15:15:25.178689,2019-10-29T00:38:06.431070,127,s,唯色
2019-10-18T15:15:25.178689,2019-10-29T00:38:07.355032,128,s,爱的十个条件
2019-10-18T15:15:25.178689,2019-10-29T00:38:06.195182,129,s,章沁生
2019-10-18T15:15:25.178689,2019-10-29T00:38:08.438615,130,s,中国新民主主义青年团
2019-10-18T15:15:25.178689,2019-10-29T00:38:09.141634,131,s,乌鲁木齐武警殴打香港记者事件
2019-10-18T15:15:25.178689,2019-10-29T00:38:07.677829,132,s,黄雀行动
2019-10-18T15:15:25.178689,2019-10-29T00:38:06.624084,133,s,十四世达赖
2019-10-18T15:15:25.178689,2019-10-29T00:38:08.487806,134,s,民主女神
2019-10-18T15:15:25.178689,2019-10-29T00:38:07.076305,135,s,刘云山
2019-10-18T15:15:25.178689,2019-10-29T00:38:05.682647,136,s,李鹏
2019-10-18T15:15:25.178689,2019-10-29T00:38:09.342556,137,s,囊帕拉枪杀事件
2019-10-18T15:15:25.178689,2019-10-29T00:38:06.126927,138,s,刘晓波
2019-10-18T15:15:25.178689,2019-10-29T00:38:05.864186,139,s,广州市新塘事件
2019-10-18T15:15:25.178689,2019-10-29T00:38:05.538126,140,s,中国人民解放军第27集团军
2019-10-18T15:15:25.178689,2019-10-29T00:38:09.087388,141,s,2012年中华民国总统选举
2019-10-18T15:15:25.178689,2019-10-29T00:38:06.000258,142,s,中华全国妇女联合会
2019-10-18T15:15:25.178689,2019-10-29T00:38:09.228588,143,s,大连反对PX项目游行
2019-10-18T15:15:25.178689,2019-10-29T00:38:07.267722,144,s,无国界记者
2019-10-18T15:15:25.178689,2019-10-29T00:38:04.995383,145,s,胡海清
2019-10-18T15:15:25.178689,2019-10-29T00:38:05.848250,146,s,布拉格之春
2019-10-18T15:15:25.178689,2019-10-29T00:38:09.364558,147,s,中华人民共和国被封锁网站列表
2019-10-18T15:15:25.178689,2019-10-29T00:38:07.291647,148,s,中国数字时代
2019-10-18T15:15:25.178689,2019-10-29T00:38:09.102327,149,s,魏京生
2019-10-18T15:15:25.178689,2019-10-29T00:38:04.952520,150,s,令谷
2019-10-18T15:15:25.178689,2019-10-29T00:38:07.736447,151,s,刘刚
2019-10-18T15:15:25.178689,2019-10-29T00:38:07.181339,152,s,中国六四真相
2019-10-18T15:15:25.178689,2019-10-29T00:38:08.190408,153,s,彭小枫
2019-10-18T15:15:25.178689,2019-10-29T00:38:08.965941,154,s,燃烧弹
2019-10-18T15:15:25.178689,2019-10-29T00:38:05.807919,155,s,邓斌
2019-10-18T15:15:25.178689,2019-10-29T00:38:09.449158,156,s,姚勇战
2019-10-18T15:15:25.178689,2019-10-29T00:38:05.142561,157,s,2008年藏人抗议事件
2019-10-18T15:15:25.178689,2019-10-29T00:38:09.487677,158,s,南方都市报
2019-10-18T15:15:25.178689,2019-10-29T00:38:08.951138,159,s,金盾工程
2019-10-18T15:15:25.178689,2019-10-29T00:38:07.409426,160,s,中国人民解放军第65集团军
2019-10-18T15:15:25.178689,2019-10-29T00:38:09.267036,161,s,世界经济导报
2019-10-18T15:15:25.178689,2019-10-29T00:38:07.370494,162,s,民主之神宣言
2019-10-18T15:15:25.178689,2019-10-29T00:38:07.523352,163,s,燃烧瓶
2019-10-18T15:15:25.178689,2019-10-29T00:38:05.352587,164,s,西藏抗暴纪念日
2019-10-18T15:15:25.178689,2019-10-29T00:38:09.259280,165,a,Princeling
2019-10-18T15:15:25.178689,2019-10-29T00:38:05.086171,166,s,中央警卫团
2019-10-18T15:15:25.178689,2019-10-29T00:38:05.822930,167,s,西单墙
2019-10-18T15:15:25.178689,2019-10-29T00:38:06.862684,168,a,Ultrareach
2019-10-18T15:15:25.178689,2019-10-29T00:38:07.636027,169,s,89学潮
2019-10-18T15:15:25.178689,2019-10-29T00:38:05.134000,170,s,茉莉花行动
2019-10-18T15:15:25.178689,2019-10-29T00:38:07.975818,171,s,邓小平
2019-10-18T15:15:25.178689,2019-10-29T00:38:06.440391,172,s,旭日玩具厂群体斗殴事件
2019-10-18T15:15:25.178689,2019-10-29T00:38:05.957523,173,s,杨炼
2019-10-18T15:15:25.178689,2019-10-29T00:38:08.682679,174,s,2013年南方周末新年献词被删改事
2019-10-18T15:15:25.178689,2019-10-29T00:38:05.922122,175,s,陈光诚
2019-10-18T15:15:25.178689,2019-10-29T00:38:05.061523,176,s,刘迺强
2019-10-18T15:15:25.178689,2019-10-29T00:38:09.109769,177,s,2013年《南方周末》新年特刊被删
2019-10-18T15:15:25.178689,2019-10-29T00:38:05.672324,178,s,公共知识分子
2019-10-18T15:15:25.178689,2019-10-29T00:38:08.808247,179,s,泛蓝联盟
2019-10-18T15:15:25.178689,2019-10-29T00:38:08.064297,180,a,Tiananmen_Papers
2019-10-18T15:15:25.178689,2019-10-29T00:38:07.855289,181,s,承天门
2019-10-18T15:15:25.178689,2019-10-29T00:38:07.123268,182,a,Dalai_Lama
2019-10-18T15:15:25.178689,2019-10-29T00:38:05.771215,183,s,刘霞_(刘晓波妻)
2019-10-18T15:15:25.178689,2019-10-29T00:38:07.347438,184,s,2005年5月
2019-10-18T15:15:25.178689,2019-10-29T00:38:07.573456,185,s,封从德
2019-10-18T15:15:25.178689,2019-10-29T00:38:09.149516,186,s,全球华人大游行
2019-10-18T15:15:25.178689,2019-10-29T00:38:07.060322,187,s,刘淇
2019-10-18T15:15:25.178689,2019-10-29T00:38:07.491344,188,s,廖亦武
2019-10-18T15:15:25.178689,2019-10-29T00:38:08.762083,189,a,June_4th
2019-10-18T15:15:25.178689,2019-10-29T00:38:05.931776,190,s,威视腐败案
2019-10-18T15:15:25.178689,2019-10-29T00:38:07.506508,191,s,袁红冰
2019-10-18T15:15:25.178689,2019-10-29T00:38:08.111496,192,s,2011年内蒙古抗议示威事件
2019-10-18T15:15:25.178689,2019-10-29T00:38:05.568064,193,s,台风凡亚比
2019-10-18T15:15:25.178689,2019-10-29T00:38:08.849802,194,s,中央警卫局
2019-10-18T15:15:25.178689,2019-10-29T00:38:08.034794,195,s,九评共产党
2019-10-18T15:15:25.178689,2019-10-29T00:38:07.628909,196,s,彭博新闻社
2019-10-18T15:15:25.178689,2019-10-29T00:38:08.095243,197,s,6.4事件
2019-10-18T15:15:25.178689,2019-10-29T00:38:08.494925,198,s,邓家贵
2019-10-18T15:15:25.178689,2019-10-29T00:38:08.355938,199,s,推特
2019-10-18T15:15:25.178689,2019-10-29T00:38:09.040380,200,s,维园烛光晚会
2019-10-18T15:15:25.178689,2019-10-29T00:38:05.906718,201,s,辛灏年
2019-10-18T15:15:25.178689,2019-10-29T00:38:06.137029,202,s,北岛_(诗人)
2019-10-18T15:15:25.178689,2019-10-29T00:38:09.236645,203,s,包遵信
2019-10-18T15:15:25.178689,2019-10-29T00:38:06.600302,204,s,诺贝尔和平奖
2019-10-18T15:15:25.178689,2019-10-29T00:38:08.151021,205,s,民主党_(香港)
2019-10-18T15:15:25.178689,2019-10-29T00:38:05.109735,206,s,盘古乐队
2019-10-18T15:15:25.178689,2019-10-29T00:38:06.652079,207,s,中国民主运动
2019-10-18T15:15:25.178689,2019-10-29T00:38:07.323486,208,s,2012年人类灭亡说
2019-10-18T15:15:25.178689,2019-10-29T00:38:05.654934,209,s,习仲勋
2019-10-18T15:15:25.178689,2019-10-29T00:38:07.644200,210,s,吴敦义
2019-10-18T15:15:25.178689,2019-10-29T00:38:08.895546,211,s,刘华清
2019-10-18T15:15:25.178689,2019-10-29T00:38:08.087843,212,s,吾尔开希
2019-10-18T15:15:25.178689,2019-10-29T00:38:05.549166,213,s,花园网
2019-10-18T15:15:25.178689,2019-10-29T00:38:07.300558,214,s,中国人民解放军第54集团军
2019-10-18T15:15:25.178689,2019-10-29T00:38:08.363633,215,s,庹震
2019-10-18T15:15:25.178689,2019-10-29T00:38:09.063387,216,a,Charter_08
2019-10-18T15:15:25.178689,2019-10-29T00:38:08.864027,217,s,火药
2019-10-18T15:15:25.178689,2019-10-29T00:38:08.730625,218,s,伊宁事变
2019-10-18T15:15:25.178689,2019-10-29T00:38:09.396748,219,s,李鸿忠
2019-10-18T15:15:25.178689,2019-10-29T00:38:07.017890,220,s,达赖集团
2019-10-18T15:15:25.178689,2019-10-29T00:38:07.700900,221,s,黎安友
2019-10-18T15:15:25.178689,2019-11-21T07:52:31.767538,222,s,温云松
2019-10-18T15:15:25.178689,2019-10-29T00:38:08.573382,223,s,王军涛
2019-10-18T15:15:25.178689,2019-10-29T00:38:09.033392,224,s,退党潮
2019-10-18T15:15:25.178689,2019-10-29T00:38:06.660155,225,s,杨建利
2019-10-18T15:15:25.178689,2019-10-29T00:38:08.387625,226,s,陈希同
2019-10-18T15:15:25.178689,2019-10-29T00:38:06.499858,227,s,延安日记
2019-10-18T15:15:25.178689,2019-10-29T00:38:07.467357,228,s,平措尼珍
2019-10-18T15:15:25.178689,2019-10-29T00:38:06.722864,229,s,张世军
2019-10-18T15:15:25.178689,2019-10-29T00:38:06.102780,230,s,张立昌
2019-10-18T15:15:25.178689,2019-10-29T00:38:07.605091,231,s,烧夷弹
2019-10-18T15:15:25.178689,2019-10-29T00:38:06.069597,232,s,蒙藏委员会
2019-10-18T15:15:25.178689,2019-10-29T00:38:05.949924,233,a,Great_Wall_Of_China
2019-10-18T15:15:25.178689,2019-10-29T00:38:08.003560,234,s,余杰
2019-10-18T15:15:25.178689,2019-10-29T00:38:06.846462,235,s,温家宝
2019-10-18T15:15:25.178689,2019-10-29T00:38:09.412831,236,a,Students_for_a_Free_Tibet
2019-10-18T15:15:25.178689,2019-10-29T00:38:06.212125,237,s,梁海怡
2019-10-18T15:15:25.178689,2019-10-29T00:38:07.188616,238,s,谭作人
2019-10-18T15:15:25.178689,2019-10-29T00:38:07.759501,239,s,〇八宪章
2019-10-18T15:15:25.178689,2019-10-29T00:38:06.870178,240,s,盘古乐团
2019-10-18T15:15:25.178689,2019-10-29T00:38:08.072184,241,s,大参考_(网络杂志)
2019-10-18T15:15:25.178689,2019-10-29T00:38:06.228077,242,s,自由亚洲电台
2019-10-18T15:15:25.178689,2019-10-29T00:38:07.774956,243,s,2011年陆丰乌坎事件
2019-10-18T15:15:25.178689,2019-10-29T00:38:06.077046,244,s,华国锋
2019-10-18T15:15:25.178689,2019-10-29T00:38:06.374635,245,s,王岐山
2019-10-18T15:15:25.178689,2019-10-29T00:38:05.244667,246,s,香港六四集会
2019-10-18T15:15:25.178689,2019-10-29T00:38:07.115732,247,a,Tiananmen_Square_protests_of_1989
2019-10-18T15:15:25.178689,2019-10-29T00:38:08.590234,248,s,维基解密泄露美国外交电报事件
2019-10-18T15:15:25.178689,2019-10-29T00:38:08.934185,249,s,王丹
2019-10-18T15:15:25.178689,2019-10-29T00:38:08.277263,250,s,2010-2011年突尼
2019-10-18T15:15:25.178689,2019-10-29T00:38:05.664075,251,s,香港市民支援爱国民主运动联合会
2019-10-18T15:15:25.178689,2019-10-29T00:38:08.422347,252,s,动态网
2019-10-18T15:15:25.178689,2019-10-29T00:38:06.633758,253,s,阎明复
2019-10-18T15:15:25.178689,2019-10-29T00:38:06.292749,254,s,藏区连环自焚事件
2019-10-18T15:15:25.178689,2019-10-29T00:38:08.012159,255,s,侯赛因江
2019-10-18T15:15:25.178689,2019-10-29T00:38:08.888202,256,s,六四天网
2019-10-18T15:15:25.178689,2019-10-29T00:38:05.559523,257,s,世界维吾尔青年代表大会
2019-10-18T15:15:25.178689,2019-10-29T00:38:07.386865,258,s,多维
2019-10-18T15:15:25.178689,2019-10-29T00:38:06.775335,259,s,程翔
2019-10-18T15:15:25.178689,2019-10-29T00:38:05.484782,260,s,俞正声
2019-10-18T15:15:25.178689,2019-10-29T00:38:08.841802,261,s,阳光时务
2019-10-18T15:15:25.178689,2019-10-29T00:38:05.433445,262,s,元祐更化
2019-10-18T15:15:25.178689,2019-10-29T00:38:07.251415,263,s,中国政治异见人士
2019-10-18T15:15:25.178689,2019-10-29T00:38:05.094254,264,s,曾庆红
2019-10-18T15:15:25.178689,2019-10-29T00:38:09.555281,265,s,赵连海
2019-10-18T15:15:25.178689,2019-10-29T00:38:06.784923,266,s,天安门自焚事件
2019-10-18T15:15:25.178689,2019-10-29T00:38:05.727556,267,s,阳光时务周刊
2019-10-18T15:15:25.178689,2019-10-29T00:38:09.323841,268,s,宗凤鸣
2019-10-18T15:15:25.178689,2019-10-29T00:38:07.395086,269,s,李克强
2019-10-18T15:15:25.178689,2019-10-29T00:38:08.817932,270,s,畏吾儿
2019-10-18T15:15:25.178689,2019-10-29T00:38:08.447586,271,s,高瑜
2019-10-18T15:15:25.178689,2019-10-29T00:38:07.728927,272,s,王刚
2019-10-18T15:15:25.178689,2019-10-29T00:38:07.667666,273,s,李长春
2019-10-18T15:15:25.178689,2019-10-29T00:38:09.525486,274,s,俄罗斯
2019-10-18T15:15:25.178689,2019-10-29T00:38:06.111677,275,s,香港泛民主派
2019-10-18T15:15:25.178689,2019-10-29T00:38:07.315329,276,s,李旺阳
2019-10-18T15:15:25.178689,2019-10-29T00:38:08.746469,277,s,令计划
2019-10-18T15:15:25.178689,2019-10-29T00:38:05.045665,278,s,周永康
2019-10-18T15:15:25.178689,2019-10-29T00:38:05.989157,279,s,司徒华
2019-10-18T15:15:25.178689,2019-10-29T00:38:05.856654,280,s,夏格巴·旺秋德丹
2019-10-18T15:15:25.178689,2019-10-29T00:38:06.607798,281,s,自由西藏学生运动
2019-10-18T15:15:25.178689,2019-10-29T00:38:05.636480,282,s,秦城监狱
2019-10-18T15:15:25.178689,2019-10-29T00:38:06.667741,283,s,激流中国
2019-10-18T15:15:25.178689,2019-10-29T00:38:09.116737,284,s,蒋彦永
2019-10-18T15:15:25.178689,2019-10-29T00:38:06.490644,285,s,毛泽东：鲜为人知的故事
2019-10-18T15:15:25.178689,2019-10-29T00:38:09.244653,286,s,亚洲周刊
2019-10-18T15:15:25.178689,2019-10-29T00:38:07.813108,287,s,法轮
2019-10-18T15:15:25.178689,2019-10-29T00:38:05.899081,288,s,第38军
2019-10-18T15:15:25.178689,2019-10-29T00:38:05.587935,289,s,李卓人
2019-10-18T15:15:25.178689,2019-10-29T00:38:05.705780,290,s,北京中民信房地产开发有限公
2019-10-18T15:15:25.178689,2019-10-29T00:38:05.577502,291,s,娄勤俭
2019-10-18T15:15:25.178689,2019-10-29T00:38:05.009950,292,s,柴玲
2019-10-18T15:15:25.178689,2019-10-29T00:38:07.156364,293,s,公盟法律研究中心
2019-10-18T15:15:25.178689,2019-10-29T00:38:05.359910,294,s,许家屯
2019-10-18T15:15:25.178689,2019-10-29T00:38:07.545799,295,a,Twitter
2019-10-18T15:15:25.178689,2019-10-29T00:38:08.918079,296,a,20th_anniversary_Tiananmen_square_incident_march
2019-10-18T15:15:25.178689,2019-10-29T00:38:08.471435,297,s,维基解密泄露美国外交电报事
2019-10-18T15:15:25.178689,2019-10-29T00:38:06.450828,298,s,远志明
2019-10-18T15:15:25.178689,2019-10-29T00:38:06.308766,299,s,共青团中央
2019-10-18T15:15:25.178689,2019-10-29T00:38:09.133723,300,s,彭丽媛
2019-10-18T15:15:25.178689,2019-10-29T00:38:08.826548,301,s,马𫘜
2019-10-18T15:15:25.178689,2019-10-29T00:38:09.220779,302,s,夏业良
2019-10-18T15:15:25.178689,2019-10-29T00:38:09.439215,303,s,中国茉莉花革命
2019-10-18T15:15:25.178689,2019-10-29T00:38:09.275105,304,s,中国网络软件过滤关键字列表
2019-10-18T15:15:25.178689,2019-10-29T00:38:06.836752,305,s,王兆国
2019-10-18T15:15:25.178689,2019-10-29T00:38:08.655994,306,s,天安门_(纪录片)
2019-10-18T15:15:25.178689,2019-10-29T00:38:09.124951,307,s,陈奎德
2019-10-18T15:15:25.178689,2019-10-29T00:38:08.512304,308,s,民主歌声献中华
2019-10-18T15:15:25.178689,2019-10-29T00:38:06.301648,309,s,曹长青
2019-10-18T15:15:25.178689,2019-10-29T00:38:05.423113,310,a,Hu_Jintao_Biography
2019-10-18T15:15:25.178689,2019-10-29T00:38:09.458566,311,s,刘慧卿
2019-10-18T15:15:25.178689,2019-10-29T00:38:06.615502,312,s,2007年反对人大否决普选游行
2019-10-18T15:15:25.178689,2019-10-29T00:38:05.378782,313,s,王炳章
2019-10-18T15:15:25.178689,2019-10-29T00:38:06.253776,314,s,五毛蛋
2019-10-18T15:15:25.178689,2019-10-29T00:38:07.164010,315,s,何挺
2019-10-18T15:15:25.178689,2019-10-29T00:38:05.183861,316,s,中国至宪党
2019-10-18T15:15:25.178689,2019-10-29T00:38:07.994013,317,s,曹建明
2019-10-18T15:15:25.178689,2019-10-29T00:38:08.722153,318,s,维多利亚公园
2019-10-18T15:15:25.178689,2019-10-29T00:38:06.687134,319,s,平反六四
2019-10-18T15:15:25.178689,2019-10-29T00:38:08.990531,320,s,中国人权
2019-10-18T15:15:25.178689,2019-10-29T00:38:06.094013,321,s,四五行动
2019-10-18T15:15:25.178689,2019-10-29T00:38:07.085106,322,a,8964
2019-10-18T15:15:25.178689,2019-10-29T00:38:05.980546,323,s,中华人民共和国持不同政见者列
2019-10-18T15:15:25.178689,2019-10-29T00:38:05.620321,324,s,当知项欠
2019-10-18T15:15:25.178689,2019-10-29T00:38:07.171991,325,s,河殇
2019-10-18T15:15:25.178689,2019-10-29T00:38:08.252988,326,s,六四内部日记
2019-10-18T15:15:25.178689,2019-10-29T00:38:06.917938,327,s,宋楚瑜
2019-10-18T15:15:25.178689,2019-10-29T00:38:09.079610,328,s,王有才
2019-10-18T15:15:25.178689,2019-10-29T00:38:06.878899,329,s,西藏生死书
2019-10-18T15:15:25.178689,2019-10-29T00:38:07.597439,330,s,自由花
2019-10-18T15:15:25.178689,2019-10-29T00:38:06.739629,331,s,阳光卫视
2019-10-18T15:15:25.178689,2019-10-29T00:38:07.211806,332,s,何俊仁
2019-10-18T15:15:25.178689,2019-10-29T00:38:07.719258,333,s,8341部队
2019-10-18T15:15:25.178689,2019-10-29T00:38:05.715227,334,s,迟浩田
2019-10-18T15:15:25.178689,2019-10-29T00:38:08.556228,335,s,七一效应
2019-10-18T15:15:25.178689,2019-10-29T00:38:09.205210,336,s,王文怡
2019-10-18T15:15:25.178689,2019-10-29T00:38:07.619883,337,s,贾晓烨
2019-10-18T15:15:25.178689,2019-10-29T00:38:05.159183,338,s,妇联
2019-10-18T15:15:25.178689,2019-10-29T00:38:06.555320,339,s,2012年双普选
2019-10-18T15:15:25.178689,2019-10-29T00:38:08.411999,340,s,梁国雄
2019-10-18T15:15:25.178689,2019-10-29T00:38:09.182406,341,s,贺国强
2019-10-18T15:15:25.178689,2019-10-29T00:38:07.332303,342,s,七不讲
2019-10-18T15:15:25.178689,2019-10-29T00:38:09.157269,343,a,kuso
2019-10-18T15:15:25.178689,2019-10-29T00:38:07.130881,344,s,改革历程
2019-10-18T15:15:25.178689,2019-10-29T00:38:05.524450,345,s,江绵恒
2019-10-18T15:15:25.178689,2019-10-29T00:38:07.782843,346,s,林瑞雄
2019-10-18T15:15:25.178689,2019-10-29T00:38:08.371730,347,s,天安门事件
2019-10-18T15:15:25.178689,2019-10-29T00:38:06.036253,348,s,一个中心
2019-10-18T15:15:25.178689,2019-10-29T00:38:05.973257,349,s,薄熙来
2019-10-18T15:15:25.178689,2019-10-29T00:38:08.598280,350,s,文字狱
2019-10-18T15:15:25.178689,2019-10-29T00:38:07.536592,351,s,宋任穷
2019-10-18T15:15:25.178689,2019-10-29T00:38:07.379130,352,s,李柱铭
2019-10-18T15:15:25.178689,2019-10-29T00:38:09.212484,353,a,Tank_man
2019-10-18T15:15:25.178689,2019-10-29T00:38:05.799893,354,s,香港民主
2019-10-18T15:15:25.178689,2019-10-29T00:38:07.148408,355,s,绝食
2019-10-18T15:15:25.178689,2019-10-29T00:38:07.476040,356,s,中国家庭教会
2019-10-18T15:15:25.178689,2019-10-29T00:38:05.216832,357,s,张钰
2019-10-18T15:15:25.178689,2019-10-29T00:38:06.537404,358,s,66455部队
2019-10-18T15:15:25.178689,2019-10-29T00:38:08.480089,359,s,社会主义初级阶段
2019-10-18T15:15:25.178689,2019-10-29T00:38:07.244112,360,s,苏家屯事件
2019-10-18T15:15:25.178689,2019-10-29T00:38:05.404895,361,s,栗智
2019-10-18T15:15:25.178689,2019-10-29T00:38:05.830438,362,s,严家其
2019-10-18T15:15:25.178689,2019-10-29T00:38:05.233354,363,s,八九
2019-10-18T15:15:25.178689,2019-10-29T00:38:07.460113,364,s,蚁力神
2019-10-18T15:15:25.178689,2019-10-29T00:38:08.703452,365,s,李洪宽
2019-10-18T15:15:25.178689,2019-10-29T00:38:06.927230,366,s,六四歌曲
2019-10-18T15:15:25.178689,2019-10-29T00:38:08.538204,367,s,内蒙古抗议
2019-10-18T15:15:25.178689,2019-10-29T00:38:05.780289,368,s,中国劳工观察
2019-10-18T15:15:25.178689,2019-10-29T00:38:06.062029,369,s,陈子明
2019-10-18T15:15:25.178689,2019-10-29T00:38:07.417650,370,s,新公民运动
2019-10-18T15:15:25.178689,2019-10-29T00:38:08.925350,371,a,Tenzin_Gyatso
2019-10-18T15:15:25.178689,2019-10-29T00:38:08.284768,372,a,Liu_Xiaobo
2019-10-18T15:15:25.178689,2019-10-29T00:38:08.582720,373,s,王若望
2019-10-18T15:15:25.178689,2019-10-29T00:38:05.965112,374,s,中华人民共和国被禁出版物列表
2019-10-18T15:15:25.178689,2019-10-29T00:38:05.209491,375,s,艾未未
2019-10-18T15:15:25.178689,2019-10-29T00:38:06.145539,376,s,茉莉花事件
2019-10-18T15:15:25.178689,2019-10-29T00:38:07.139186,377,s,西藏人民起义日
2019-10-18T15:15:25.178689,2019-10-29T00:38:08.737951,378,s,香港独立主义
2019-10-18T15:15:25.178689,2019-10-29T00:38:07.660437,379,s,中国共产党
2019-10-18T15:15:25.178689,2019-10-29T00:38:06.045509,380,s,习明泽
2019-10-18T15:15:25.178689,2019-10-29T00:38:08.503060,381,s,2010年诺贝尔和平奖
2019-10-18T15:15:25.178689,2019-10-29T00:38:06.819454,382,s,六四襟章
2019-10-18T15:15:25.178689,2019-10-29T00:38:08.857012,383,s,大纪元时报
2019-10-18T15:15:25.178689,2019-10-29T00:38:09.516375,384,s,我的奋斗
2019-10-18T15:15:25.178689,2019-10-29T00:38:04.987198,385,s,胡平_(作家)
2019-10-18T15:15:25.178689,2019-10-29T00:38:08.173429,386,s,香港游行
2019-10-18T15:15:25.178689,2019-10-29T00:38:05.754663,387,s,西藏问题
2019-10-18T15:15:25.178689,2019-10-29T00:38:06.244770,388,s,陈一咨
2019-10-18T15:15:25.178689,2019-10-29T00:38:09.251448,389,s,西厢计划
2019-10-18T15:15:25.178689,2019-10-29T00:38:08.379895,390,s,人民报_(中文)
2019-10-18T15:15:25.178689,2019-10-29T00:38:06.583770,391,s,彭博公司
2019-10-18T15:15:25.178689,2019-10-29T00:38:08.119633,392,s,张培莉
2019-10-18T15:15:25.178689,2019-10-29T00:38:07.966626,393,a,Ultrasurf
2019-10-18T15:15:25.178689,2019-10-29T00:38:08.057375,394,s,中国持不同政见者名单
2019-10-18T15:15:25.178689,2019-10-29T00:38:06.054260,395,s,中华人民共和国贪污案件
2019-10-18T15:15:25.178689,2019-10-29T00:38:05.193406,396,s,建国门
2019-10-18T15:15:25.178689,2019-10-29T00:38:08.042315,397,s,2013年《南方周末》新年献词
2019-10-18T15:15:25.178689,2019-10-29T00:38:07.196874,398,s,中国法学会
2019-10-18T15:15:25.178689,2019-10-29T00:38:08.198249,399,s,吴弘达
2019-10-18T15:15:25.178689,2019-10-29T00:38:05.166633,400,s,俞丽萍
2019-10-18T15:15:25.178689,2019-10-29T00:38:08.135268,401,s,太子党
2019-10-18T15:15:25.178689,2019-10-29T00:38:06.019857,402,s,38军
2019-10-18T15:15:25.178689,2019-10-29T00:38:05.387943,403,s,香港七一大游行
2019-10-18T15:15:25.178689,2019-10-29T00:38:09.172709,404,s,中国共产主义青年团
2019-10-18T15:15:25.178689,2019-10-29T00:38:08.182087,405,s,天安门屠杀
2019-10-18T15:15:25.178689,2019-10-29T00:38:08.614559,406,s,熊焱
2019-10-18T15:15:25.178689,2019-10-29T00:38:05.116845,407,s,2012年中华人民共和国腐败案件
2019-10-18T15:15:25.178689,2019-10-29T00:38:09.315851,408,s,回良玉
2019-10-18T15:15:25.178689,2019-10-29T00:38:09.164980,409,s,方励之
2019-10-18T15:15:25.178689,2019-10-29T00:38:08.958802,410,s,胡锦涛
2019-10-18T15:15:25.178689,2019-10-29T00:38:06.459432,411,s,维园六四烛光晚会
2019-10-18T15:15:25.178689,2019-10-29T00:38:07.985177,412,s,2012年藏区骚乱
2019-10-18T15:15:25.178689,2019-10-29T00:38:06.358313,413,s,王斌余
2019-10-18T15:15:25.178689,2019-10-29T00:38:06.715436,414,s,达兰萨拉
2019-10-18T15:15:25.178689,2019-10-29T00:38:08.713250,415,s,方舟子
2019-10-18T15:15:25.178689,2019-10-29T00:38:06.967127,416,s,谷歌退出中国事件
2019-10-18T15:15:25.178689,2019-10-29T00:38:08.463714,417,s,北京民运
2019-10-18T15:15:25.178689,2019-10-29T00:38:06.753271,418,s,39军
2019-10-18T15:15:25.178689,2019-10-29T00:38:05.264195,419,s,中国共产主义青年团历任领导人
2019-10-18T15:15:25.178689,2019-10-29T00:38:07.283940,420,s,胡佳_(1973年)
2019-10-18T15:15:25.178689,2019-10-29T00:38:09.094466,421,s,开放杂志
2019-10-18T15:15:25.178689,2019-10-29T00:38:07.045467,422,s,霍英东
2019-10-18T15:15:25.178689,2019-10-29T00:38:07.227551,423,s,张文光
2019-10-18T15:15:25.178689,2019-10-29T00:38:06.027980,424,s,2011年温州动车追尾事件
2019-10-18T15:15:25.178689,2019-10-29T00:38:08.910304,425,s,破网
2019-10-18T15:15:25.178689,2019-10-29T00:38:08.834618,426,s,维权诗集
2019-10-18T15:15:25.178689,2019-10-29T00:38:06.365695,427,s,2011年杭深线动车组列车追尾事故
2019-10-18T15:15:25.178689,2019-10-29T00:38:08.205740,428,a,Crown_Prince_Party
2019-10-18T15:15:25.178689,2019-10-29T00:38:07.402256,429,s,卫奕信
2019-10-18T15:15:25.178689,2019-10-29T00:38:08.019797,430,s,春夏之交的政治风波
2019-10-18T15:15:25.178689,2019-10-29T00:38:08.547254,431,s,江绵康
2019-10-18T15:15:25.178689,2019-10-29T00:38:06.910405,432,s,无界
2019-10-18T15:15:25.178689,2019-10-29T00:38:04.969166,433,s,纽约时报
2019-10-18T15:15:25.178689,2019-10-29T00:38:09.354397,434,s,89运动
2019-10-18T15:15:25.178689,2019-10-29T00:38:08.308230,435,s,毛泽东私人医生回忆录
2019-10-18T15:15:25.178689,2019-10-29T00:38:09.404975,436,s,香港七一游行
2019-10-18T15:15:25.178689,2019-10-29T00:38:06.935772,437,s,张高丽
2019-10-18T15:15:25.178689,2019-10-29T00:38:06.409697,438,a,Flag_of_Tibet
2019-10-18T15:15:25.178689,2019-10-29T00:38:07.901261,439,s,网络评论员
2019-10-18T15:15:25.178689,2019-10-29T00:38:08.801143,440,a,Tibetan_Independence_Movement
2019-10-18T15:15:25.178689,2019-10-29T00:38:07.260231,441,s,陶驷驹
2019-10-18T15:15:25.178689,2019-10-29T00:38:06.220169,442,s,零八宪章
2019-10-18T15:15:25.178689,2019-10-29T00:38:08.671061,443,s,中华全国归国华侨联合会
2019-10-18T15:15:25.178689,2019-10-29T00:38:06.340796,444,s,达赖喇嘛
2019-10-18T15:15:25.178689,2019-10-29T00:38:05.175965,445,s,WikiLeaks泄露美国外交电报事件
2019-10-18T15:15:25.178689,2019-10-29T00:38:08.998850,446,s,东突厥斯坦
2019-10-18T15:15:25.178689,2019-10-29T00:38:06.168948,447,s,孙文广
2019-10-18T15:15:25.178689,2019-10-29T00:38:09.471180,448,s,杨银波
2019-10-18T15:15:25.178689,2019-10-29T00:38:07.554444,449,s,中国人民解放军总后勤部
2019-10-18T15:15:25.178689,2019-10-29T00:38:09.388492,450,s,独立进行曲
2019-10-18T15:15:25.178689,2019-10-29T00:38:05.036754,451,s,民主墙运动
2019-10-18T15:15:25.178689,2019-10-29T00:38:08.348226,452,s,人民不会忘记
2019-10-18T15:15:25.178689,2019-10-29T00:38:07.806013,453,s,六四诗集
2019-10-18T15:15:25.178689,2019-10-29T00:38:07.444186,454,s,北京之春
2019-10-18T15:15:25.178689,2019-10-29T00:38:07.053043,455,s,中共五大书记
2019-10-18T15:15:25.178689,2019-10-29T00:38:05.330309,456,s,共匪
2019-10-18T15:15:25.178689,2019-10-29T00:38:07.108552,457,s,世界通
2019-10-18T15:15:25.178689,2019-10-29T00:38:08.160050,458,s,焦国标
2019-10-18T15:15:25.178689,2019-10-29T00:38:05.412975,459,s,血染的风采
2019-10-18T15:15:25.178689,2019-10-29T00:38:05.201018,460,s,许志永
2019-10-18T15:15:25.178689,2019-10-29T00:38:06.944322,461,s,1989天安门
2019-10-18T15:15:25.178689,2019-10-29T00:38:09.190281,462,s,温总
2019-10-18T15:15:25.178689,2019-10-29T00:38:05.939669,463,s,方圆
2019-10-18T15:15:25.178689,2019-10-29T00:38:07.484015,464,s,牛博网
2019-10-18T15:15:25.178689,2019-10-29T00:38:09.582200,465,s,北京高校学生自治联合会
2019-10-18T15:15:25.178689,2019-10-29T00:38:06.483001,466,s,和平演变
2019-10-18T15:15:25.178689,2019-10-29T00:38:06.316227,467,s,突破封锁软件
2019-10-18T15:15:25.178689,2019-10-29T00:38:06.475162,468,a,Liu_Xianbin
2019-10-18T15:15:25.178689,2019-10-29T00:38:09.047874,469,s,中国人民解放军第20集团军
2019-10-18T15:15:25.178689,2019-10-29T00:38:08.982497,470,s,台湾选举
2019-10-18T15:15:25.178689,2019-10-29T00:38:07.839530,471,s,赵修业
2019-10-18T15:15:25.178689,2019-10-29T00:38:05.078708,472,s,中国人民解放军第39集团军
2019-10-18T15:15:25.178689,2019-10-29T00:38:06.574139,473,s,临沂计划生育事件
2019-10-18T15:15:25.178689,2019-10-29T00:38:08.213724,474,a,Chen_Guangcheng
2019-10-18T15:15:25.178689,2019-10-29T00:38:08.778330,475,s,6·4
2019-10-18T15:15:25.178689,2019-10-29T00:38:08.974111,476,s,刘宾雁
2019-10-18T15:15:25.178689,2019-10-29T00:38:06.186814,477,s,七一大游行
2019-10-18T15:15:25.178689,2019-10-29T00:38:07.828756,478,s,胡海峰
2019-10-18T15:15:25.178689,2019-10-29T00:38:09.573388,479,s,周强
2019-10-18T15:15:25.178689,2019-10-29T00:38:07.068473,480,s,历史的伤口
2019-10-18T15:15:25.178689,2019-10-29T00:38:06.350547,481,s,新世纪出版社
2019-10-18T15:15:25.178689,2019-10-29T00:38:08.269069,482,s,新唐人电视台
2019-10-18T15:15:25.178689,2019-10-29T00:38:08.881047,483,s,2007年区议会选举
2019-10-18T15:15:25.178689,2019-10-29T00:38:06.325276,484,s,民间人权阵线
2019-10-18T15:15:25.178689,2019-10-29T00:38:08.530440,485,s,东土耳其斯坦信息中心
2019-10-18T15:15:25.178689,2019-10-29T00:38:06.421166,486,s,黄琦
2019-10-18T15:15:25.178689,2019-10-29T00:38:05.914263,487,s,中华民国总统
2019-10-18T15:15:25.178689,2019-10-29T00:38:09.535557,488,s,热比娅
2019-10-18T15:15:25.178689,2019-10-29T00:38:05.224940,489,s,钱其琛
2019-10-18T15:15:25.178689,2019-10-29T00:38:05.447668,490,s,鲍彤
2019-10-18T15:15:25.178689,2019-10-29T00:38:08.316225,491,s,六四18周年
2019-10-18T15:15:25.178689,2019-10-29T00:38:09.283935,492,s,2003年香港七一游行
2019-10-18T15:15:25.178689,2019-10-29T00:38:09.015946,493,s,雪山狮子旗
2019-10-18T15:15:25.178689,2019-10-29T00:38:05.397611,494,s,冯正虎
2019-10-18T15:15:25.178689,2019-10-29T00:38:05.881257,495,s,写给西藏的歌
2019-10-18T15:15:25.178689,2019-10-29T00:38:07.339883,496,s,章诒和
2019-10-18T15:15:25.178689,2019-10-29T00:38:08.396514,497,s,高智晟
2019-10-18T15:15:25.178689,2019-10-29T00:38:09.420528,498,s,习近平
2019-10-18T15:15:25.178689,2019-10-29T00:38:07.426618,499,s,李洪志
2019-10-18T15:15:25.178689,2019-10-29T00:38:05.254572,500,s,张德江
2019-10-18T15:15:25.178689,2019-10-29T00:38:07.710963,501,s,唐柏桥
2019-10-18T15:15:25.178689,2019-10-29T00:38:07.589447,502,a,Szeto_Wah
2019-10-18T15:15:25.178689,2019-10-29T00:38:08.049821,503,s,重庆万盛事件
2019-10-18T15:15:25.178689,2019-10-29T00:38:08.221600,504,s,天安门
2019-10-18T15:15:25.178689,2019-10-29T00:38:08.903308,505,s,天安门母亲运动
2019-10-18T15:15:25.178689,2019-10-29T00:38:06.268709,506,s,乌坎事件
2019-10-18T15:15:25.178689,2019-10-29T00:38:08.694639,507,s,中国人民解放军第38集团军
2019-10-18T15:15:25.178689,2019-10-29T00:38:05.692908,508,s,蔡英文
2019-10-18T15:15:25.178689,2019-10-29T00:38:06.991082,509,s,网络人权宣言
2019-10-18T15:15:25.178689,2019-10-29T00:38:06.591665,510,s,中华人民共和国宪法
2019-10-18T15:15:25.178689,2019-10-29T00:38:08.605900,511,a,Mao_The_Unknown_Story
2019-10-18T15:15:25.178689,2019-10-29T00:38:07.752139,512,s,国家国防动员委员会
2019-10-18T15:15:25.178689,2019-10-29T00:38:08.293553,513,s,人民日报
2019-10-18T15:15:25.178689,2019-10-29T00:38:06.984060,514,s,2007年香港区议会选举
2019-10-18T15:15:25.178689,2019-10-29T00:38:05.369117,515,s,王立军
2020-09-15T18:22:31.042170,2020-09-15T18:22:31.042170,516,s,烏坎事件
2020-09-15T18:22:31.042170,2020-09-15T18:22:31.042170,517,s,自由門
2020-09-15T18:22:31.042170,2020-09-15T18:22:31.042170,518,s,中共中央宣傳部
2020-09-15T18:22:31.042170,2020-09-15T18:22:31.042170,519,s,王丹_(民運人士)
2020-09-15T18:22:31.042170,2020-09-15T18:22:31.042170,520,s,華國鋒
2020-09-15T18:22:31.042170,2020-09-15T18:22:31.042170,521,s,马馼
2020-09-15T18:22:31.042170,2020-09-15T18:22:31.042170,522,s,劉迺強
2020-09-15T18:22:31.042170,2020-09-15T18:22:31.042170,523,s,霍英東
2020-09-15T18:22:31.042170,2020-09-15T18:22:31.042170,524,s,馬英九
2020-09-15T18:22:31.042170,2020-09-15T18:22:31.042170,525,s,當知項欠
2020-09-15T18:22:31.042170,2020-09-15T18:22:31.042170,526,s,畏吾兒
2020-09-15T18:22:31.042170,2020-09-15T18:22:31.042170,527,s,香港六四集會
2020-09-15T18:23:36.842619,2020-09-15T18:23:36.842619,528,t,2011年陸豐烏坎事件
2020-09-15T18:23:36.842619,2020-09-15T18:23:36.842619,529,t,中國茉莉花革命
2020-09-15T18:23:36.842619,2020-09-15T18:23:36.842619,530,t,中國茉莉花活動
2020-09-15T18:23:36.842619,2020-09-15T18:23:36.842619,531,t,颱風凡亞比
2020-09-15T18:23:36.842619,2020-09-15T18:23:36.842619,532,t,08憲章
2020-09-15T18:23:36.842619,2020-09-15T18:23:36.842619,533,t,零八憲章
2020-09-15T18:23:36.842619,2020-09-15T18:23:36.842619,534,t,蟻力神
2020-09-15T18:23:36.842619,2020-09-15T18:23:36.842619,535,t,西單民主牆
2020-09-15T18:23:36.842619,2020-09-15T18:23:36.842619,536,t,民主牆運動
2020-09-15T18:23:36.842619,2020-09-15T18:23:36.842619,537,t,伊寧事變
2020-09-15T18:23:36.842619,2020-09-15T18:23:36.842619,538,t,多維
2020-09-15T18:23:36.842619,2020-09-15T18:23:36.842619,539,t,美國之音
2020-09-15T18:23:36.842619,2020-09-15T18:23:36.842619,540,t,彭博新聞社
2020-09-15T18:23:36.842619,2020-09-15T18:23:36.842619,541,t,亞洲週刊
2020-09-15T18:23:36.842619,2020-09-15T18:23:36.842619,542,t,陽光時務
2020-09-15T18:23:36.842619,2020-09-15T18:23:36.842619,543,t,開放雜誌
2020-09-15T18:23:36.842619,2020-09-15T18:23:36.842619,544,t,世界經濟導報
2020-09-15T18:23:36.842619,2020-09-15T18:23:36.842619,545,t,華夏文摘
2020-09-15T18:23:36.842619,2020-09-15T18:23:36.842619,546,t,自由中國論壇
2020-09-15T18:23:36.842619,2020-09-15T18:23:36.842619,547,t,河殤
2020-09-15T18:23:36.842619,2020-09-15T18:23:36.842619,548,t,毛澤東：鮮為人知的故事
2020-09-15T18:23:36.842619,2020-09-15T18:23:36.842619,549,t,改革歷程
2020-09-15T18:23:36.842619,2020-09-15T18:23:36.842619,550,t,花園網
2020-09-15T18:23:36.842619,2020-09-15T18:23:36.842619,551,t,突破網絡審查
2020-09-15T18:23:36.842619,2020-09-15T18:23:36.842619,552,t,無國界記者
2020-09-15T18:23:36.842619,2020-09-15T18:23:36.842619,553,t,泛藍聯盟
2020-09-15T18:23:36.842619,2020-09-15T18:23:36.842619,554,t,中國民主黨
2020-09-15T18:23:36.842619,2020-09-15T18:23:36.842619,555,t,獨立中文筆會
2020-09-15T18:23:36.842619,2020-09-15T18:23:36.842619,556,t,中國勞工觀察
2020-09-15T18:23:36.842619,2020-09-15T18:23:36.842619,557,t,六四天網
2020-09-15T18:23:36.842619,2020-09-15T18:23:36.842619,558,t,文字獄
2020-09-15T18:23:36.842619,2020-09-15T18:23:36.842619,559,t,絕食
2020-09-15T18:23:36.842619,2020-09-15T18:23:36.842619,560,t,中國人權
2020-09-15T18:23:36.842619,2020-09-15T18:23:36.842619,561,t,中國民主運動
2020-09-15T18:23:36.842619,2020-09-15T18:23:36.842619,562,t,中國持不同政見者列表
2020-09-15T18:23:36.842619,2020-09-15T18:23:36.842619,563,t,中國持不同政見者名單
2020-09-15T18:23:36.842619,2020-09-15T18:23:36.842619,564,t,中華人民共和國持不同政見者列
2020-09-15T18:23:36.842619,2020-09-15T18:23:36.842619,565,t,中國政治異見人士
2020-09-15T18:23:36.842619,2020-09-15T18:23:36.842619,566,t,中國共產黨
2020-09-15T18:23:36.842619,2020-09-15T18:23:36.842619,567,t,團派
2020-09-15T18:23:36.842619,2020-09-15T18:23:36.842619,568,t,中國共產主義青年團歷任領導人
2020-09-15T18:23:36.842619,2020-09-15T18:23:36.842619,569,t,中央警衛局
2020-09-15T18:23:36.842619,2020-09-15T18:23:36.842619,570,t,中華人民共和國貪污案件
2020-09-15T18:23:36.842619,2020-09-15T18:23:36.842619,571,t,陳光誠
2020-09-15T18:23:36.842619,2020-09-15T18:23:36.842619,572,t,陳一諮
2020-09-15T18:23:36.842619,2020-09-15T18:23:36.842619,573,t,賈甲
2020-09-15T18:23:36.842619,2020-09-15T18:23:36.842619,574,t,李旺陽
2020-09-15T18:23:36.842619,2020-09-15T18:23:36.842619,575,t,劉霞_(劉曉波妻)
2020-09-15T18:23:36.842619,2020-09-15T18:23:36.842619,576,t,劉曉波
2020-09-15T18:23:36.842619,2020-09-15T18:23:36.842619,577,t,盤古樂團
2020-09-15T18:23:36.842619,2020-09-15T18:23:36.842619,578,t,張世軍
2020-09-15T18:23:36.842619,2020-09-15T18:23:36.842619,579,t,趙紫陽
2020-09-15T18:23:36.842619,2020-09-15T18:23:36.842619,580,t,宗鳳鳴
2020-09-15T18:23:36.842619,2020-09-15T18:23:36.842619,581,t,鮑彤
2020-09-15T18:23:36.842619,2020-09-15T18:23:36.842619,582,t,曹長青
2020-09-15T18:23:36.842619,2020-09-15T18:23:36.842619,583,t,陳奎德
2020-09-15T18:23:36.842619,2020-09-15T18:23:36.842619,584,t,陳子明
2020-09-15T18:23:36.842619,2020-09-15T18:23:36.842619,585,t,方勵之
2020-09-15T18:23:36.842619,2020-09-15T18:23:36.842619,586,t,方圓
2020-09-15T18:23:36.842619,2020-09-15T18:23:36.842619,587,t,封從德
2020-09-15T18:23:36.842619,2020-09-15T18:23:36.842619,588,t,韓東方
2020-09-15T18:23:36.842619,2020-09-15T18:23:36.842619,589,t,黃琦
2020-09-15T18:23:36.842619,2020-09-15T18:23:36.842619,590,t,蔣品超
2020-09-15T18:23:36.842619,2020-09-15T18:23:36.842619,591,t,焦國標
2020-09-15T18:23:36.842619,2020-09-15T18:23:36.842619,592,t,李洪寬
2020-09-15T18:23:36.842619,2020-09-15T18:23:36.842619,593,t,李祿
2020-09-15T18:23:36.842619,2020-09-15T18:23:36.842619,594,t,劉賓雁
2020-09-15T18:23:36.842619,2020-09-15T18:23:36.842619,595,t,劉剛
2020-09-15T18:23:36.842619,2020-09-15T18:23:36.842619,596,t,齊志勇
2020-09-15T18:23:36.842619,2020-09-15T18:23:36.842619,597,t,師濤
2020-09-15T18:23:36.842619,2020-09-15T18:23:36.842619,598,t,王軍濤
2020-09-15T18:23:36.842619,2020-09-15T18:23:36.842619,599,t,吳弘達
2020-09-15T18:23:36.842619,2020-09-15T18:23:36.842619,600,t,吾爾開希
2020-09-15T18:23:36.842619,2020-09-15T18:23:36.842619,601,t,辛灝年
2020-09-15T18:23:36.842619,2020-09-15T18:23:36.842619,602,t,許家屯
2020-09-15T18:23:36.842619,2020-09-15T18:23:36.842619,603,t,嚴家其
2020-09-15T18:23:36.842619,2020-09-15T18:23:36.842619,604,t,楊建利
2020-09-15T18:23:36.842619,2020-09-15T18:23:36.842619,605,t,楊煉
2020-09-15T18:23:36.842619,2020-09-15T18:23:36.842619,606,t,姚勇戰
2020-09-15T18:23:36.842619,2020-09-15T18:23:36.842619,607,t,袁紅冰
2020-09-15T18:23:36.842619,2020-09-15T18:23:36.842619,608,t,遠志明
2020-09-15T18:23:36.842619,2020-09-15T18:23:36.842619,609,t,章詒和
2020-09-15T18:23:36.842619,2020-09-15T18:23:36.842619,610,t,周國聰
2020-09-15T18:23:36.842619,2020-09-15T18:23:36.842619,611,t,胡錦濤
2020-09-15T18:23:36.842619,2020-09-15T18:23:36.842619,612,t,吳邦國
2020-09-15T18:23:36.842619,2020-09-15T18:23:36.842619,613,t,溫家寶
2020-09-15T18:23:36.842619,2020-09-15T18:23:36.842619,614,t,溫總
2020-09-15T18:23:36.842619,2020-09-15T18:23:36.842619,615,t,賈慶林
2020-09-15T18:23:36.842619,2020-09-15T18:23:36.842619,616,t,李長春
2020-09-15T18:23:36.842619,2020-09-15T18:23:36.842619,617,t,習近平
2020-09-15T18:23:36.842619,2020-09-15T18:23:36.842619,618,t,齊橋橋
2020-09-15T18:23:36.842619,2020-09-15T18:23:36.842619,619,t,李克強
2020-09-15T18:23:36.842619,2020-09-15T18:23:36.842619,620,t,賀國強
2020-09-15T18:23:36.842619,2020-09-15T18:23:36.842619,621,t,王剛
2020-09-15T18:23:36.842619,2020-09-15T18:23:36.842619,622,t,王樂泉
2020-09-15T18:23:36.842619,2020-09-15T18:23:36.842619,623,t,王兆國
2020-09-15T18:23:36.842619,2020-09-15T18:23:36.842619,624,t,劉淇
2020-09-15T18:23:36.842619,2020-09-15T18:23:36.842619,625,t,劉雲山
2020-09-15T18:23:36.842619,2020-09-15T18:23:36.842619,626,t,劉延東
2020-09-15T18:23:36.842619,2020-09-15T18:23:36.842619,627,t,張高麗
2020-09-15T18:23:36.842619,2020-09-15T18:23:36.842619,628,t,張德江
2020-09-15T18:23:36.842619,2020-09-15T18:23:36.842619,629,t,俞正聲
2020-09-15T18:23:36.842619,2020-09-15T18:23:36.842619,630,t,薄熙來
2020-09-15T18:23:36.842619,2020-09-15T18:23:36.842619,631,t,江澤民
2020-09-15T18:23:36.842619,2020-09-15T18:23:36.842619,632,t,李鵬
2020-09-15T18:23:36.842619,2020-09-15T18:23:36.842619,633,t,李瑞環
2020-09-15T18:23:36.842619,2020-09-15T18:23:36.842619,634,t,劉華清
2020-09-15T18:23:36.842619,2020-09-15T18:23:36.842619,635,t,曾慶紅
2020-09-15T18:23:36.842619,2020-09-15T18:23:36.842619,636,t,陳希同
2020-09-15T18:23:36.842619,2020-09-15T18:23:36.842619,637,t,李鴻忠
2020-09-15T18:23:36.842619,2020-09-15T18:23:36.842619,638,t,令計劃
2020-09-15T18:23:36.842619,2020-09-15T18:23:36.842619,639,t,馬馼
2020-09-15T18:23:36.842619,2020-09-15T18:23:36.842619,640,t,宋任窮
2020-09-15T18:23:36.842619,2020-09-15T18:23:36.842619,641,t,陶駟駒
2020-09-15T18:23:36.842619,2020-09-15T18:23:36.842619,642,t,張鈺
2020-09-15T18:23:36.842619,2020-09-15T18:23:36.842619,643,t,司徒華
2020-09-15T18:23:36.842619,2020-09-15T18:23:36.842619,644,t,李柱銘
2020-09-15T18:23:36.842619,2020-09-15T18:23:36.842619,645,t,梁國雄
2020-09-15T18:23:36.842619,2020-09-15T18:23:36.842619,646,t,劉慧卿
2020-09-15T18:23:36.842619,2020-09-15T18:23:36.842619,647,t,張文光
2020-09-15T18:23:36.842619,2020-09-15T18:23:36.842619,648,t,衛奕信
2020-09-15T18:23:36.842619,2020-09-15T18:23:36.842619,649,t,香港遊行
2020-09-15T18:23:36.842619,2020-09-15T18:23:36.842619,650,t,七一遊行
2020-09-15T18:23:36.842619,2020-09-15T18:23:36.842619,651,t,七一大遊行
2020-09-15T18:23:36.842619,2020-09-15T18:23:36.842619,652,t,香港七一遊行
2020-09-15T18:23:36.842619,2020-09-15T18:23:36.842619,653,t,香港七一大遊行
2020-09-15T18:23:36.842619,2020-09-15T18:23:36.842619,654,t,七一效應
2020-09-15T18:23:36.842619,2020-09-15T18:23:36.842619,655,t,2007年反對人大否決普選遊行
2020-09-15T18:23:36.842619,2020-09-15T18:23:36.842619,656,t,2007年區議會選舉
2020-09-15T18:23:36.842619,2020-09-15T18:23:36.842619,657,t,2007年香港區議會選舉
2020-09-15T18:23:36.842619,2020-09-15T18:23:36.842619,658,t,2008年爭取2012雙普選大遊行
2020-09-15T18:23:36.842619,2020-09-15T18:23:36.842619,659,t,2012年雙普選
2020-09-15T18:23:36.842619,2020-09-15T18:23:36.842619,660,t,民間人權陣線
2020-09-15T18:23:36.842619,2020-09-15T18:23:36.842619,661,t,民主黨_(香港)
2020-09-15T18:23:36.842619,2020-09-15T18:23:36.842619,662,t,四五行動
2020-09-15T18:23:36.842619,2020-09-15T18:23:36.842619,663,t,香港獨立主義
2020-09-15T18:23:36.842619,2020-09-15T18:23:36.842619,664,t,香港市民支援愛國民主運動聯合會
2020-09-15T18:23:36.842619,2020-09-15T18:23:36.842619,665,t,吳敦義
2020-09-15T18:23:36.842619,2020-09-15T18:23:36.842619,666,t,蘇嘉全
2020-09-15T18:23:36.842619,2020-09-15T18:23:36.842619,667,t,洪哲勝
2020-09-15T18:23:36.842619,2020-09-15T18:23:36.842619,668,t,蒙藏委員會
2020-09-15T18:23:36.842619,2020-09-15T18:23:36.842619,669,t,台灣選舉
2020-09-15T18:23:36.842619,2020-09-15T18:23:36.842619,670,t,台灣總統
2020-09-15T18:23:36.842619,2020-09-15T18:23:36.842619,671,t,中華民國總統
2020-09-15T18:23:36.842619,2020-09-15T18:23:36.842619,672,t,台灣獨立建國聯盟
2020-09-15T18:23:36.842619,2020-09-15T18:23:36.842619,673,t,十四世達賴
2020-09-15T18:23:36.842619,2020-09-15T18:23:36.842619,674,t,達賴集團
2020-09-15T18:23:36.842619,2020-09-15T18:23:36.842619,675,t,西藏問題
2020-09-15T18:23:36.842619,2020-09-15T18:23:36.842619,676,t,雪山獅子旗
2020-09-15T18:23:36.842619,2020-09-15T18:23:36.842619,677,t,達蘭薩拉
2020-09-15T18:23:36.842619,2020-09-15T18:23:36.842619,678,t,藏獨
2020-09-15T18:23:36.842619,2020-09-15T18:23:36.842619,679,t,自由西藏學生運動
2020-09-15T18:23:36.842619,2020-09-15T18:23:36.842619,680,t,西藏抗暴紀念日
2020-09-15T18:23:36.842619,2020-09-15T18:23:36.842619,681,t,西藏人民起義日
2020-09-15T18:23:36.842619,2020-09-15T18:23:36.842619,682,t,囊帕拉槍殺事件
2020-09-15T18:23:36.842619,2020-09-15T18:23:36.842619,683,t,2008年藏人抗議事件
2020-09-15T18:23:36.842619,2020-09-15T18:23:36.842619,684,t,藏區連環自焚事件
2020-09-15T18:23:36.842619,2020-09-15T18:23:36.842619,685,t,西藏生死書
2020-09-15T18:23:36.842619,2020-09-15T18:23:36.842619,686,t,寫給西藏的歌
2020-09-15T18:23:36.842619,2020-09-15T18:23:36.842619,687,t,熱比婭
2020-09-15T18:23:36.842619,2020-09-15T18:23:36.842619,688,t,侯賽因江
2020-09-15T18:23:36.842619,2020-09-15T18:23:36.842619,689,t,買買提明·艾孜來提
2020-09-15T18:23:36.842619,2020-09-15T18:23:36.842619,690,t,東突
2020-09-15T18:23:36.842619,2020-09-15T18:23:36.842619,691,t,東土耳其斯坦解放組織
2020-09-15T18:23:36.842619,2020-09-15T18:23:36.842619,692,t,世界維吾爾青年代表大會
2020-09-15T18:23:36.842619,2020-09-15T18:23:36.842619,693,t,新疆獨立運動
2020-09-15T18:23:36.842619,2020-09-15T18:23:36.842619,694,t,烏魯木齊武警毆打香港記者事件
2020-09-15T18:23:36.842619,2020-09-15T18:23:36.842619,695,t,愛的十個條件
2020-09-15T18:23:36.842619,2020-09-15T18:23:36.842619,696,t,法輪
2020-09-15T18:23:36.842619,2020-09-15T18:23:36.842619,697,t,退黨潮
2020-09-15T18:23:36.842619,2020-09-15T18:23:36.842619,698,t,九評共產黨
2020-09-15T18:23:36.842619,2020-09-15T18:23:36.842619,699,t,蘇家屯事件
2020-09-15T18:23:36.842619,2020-09-15T18:23:36.842619,700,t,大紀元時報
2020-09-15T18:23:36.842619,2020-09-15T18:23:36.842619,701,t,新唐人電視台
2020-09-15T18:23:36.842619,2020-09-15T18:23:36.842619,702,t,人民報_(中文)
2020-09-15T18:23:36.842619,2020-09-15T18:23:36.842619,703,t,天安門自焚事件
2020-09-15T18:23:36.842619,2020-09-15T18:23:36.842619,704,t,1989天安門
2020-09-15T18:23:36.842619,2020-09-15T18:23:36.842619,705,t,六四詩集
2020-09-15T18:23:36.842619,2020-09-15T18:23:36.842619,706,t,六四內部日記
2020-09-15T18:23:36.842619,2020-09-15T18:23:36.842619,707,t,六四18週年
2020-09-15T18:23:36.842619,2020-09-15T18:23:36.842619,708,t,陸肆事件
2020-09-15T18:23:36.842619,2020-09-15T18:23:36.842619,709,t,春夏之交的政治風波
2020-09-15T18:23:36.842619,2020-09-15T18:23:36.842619,710,t,北京民運
2020-09-15T18:23:36.842619,2020-09-15T18:23:36.842619,711,t,北京高校學生自治聯合會
2020-09-15T18:23:36.842619,2020-09-15T18:23:36.842619,712,t,學自聯
2020-09-15T18:23:36.842619,2020-09-15T18:23:36.842619,713,t,天安門
2020-09-15T18:23:36.842619,2020-09-15T18:23:36.842619,714,t,天安門母親
2020-09-15T18:23:36.842619,2020-09-15T18:23:36.842619,715,t,天安門母親運動
2020-09-15T18:23:36.842619,2020-09-15T18:23:36.842619,716,t,天安門事件
2020-09-15T18:23:36.842619,2020-09-15T18:23:36.842619,717,t,天安門屠殺
2020-09-15T18:23:36.842619,2020-09-15T18:23:36.842619,718,t,天安門文件
2020-09-15T18:23:36.842619,2020-09-15T18:23:36.842619,719,t,中國六四真相
2020-09-15T18:23:36.842619,2020-09-15T18:23:36.842619,720,t,王維林
2020-09-15T18:23:36.842619,2020-09-15T18:23:36.842619,721,t,黃雀行動
2020-09-15T18:23:36.842619,2020-09-15T18:23:36.842619,722,t,全球華人大遊行
2020-09-15T18:23:36.842619,2020-09-15T18:23:36.842619,723,t,維多利亞公園
2020-09-15T18:23:36.842619,2020-09-15T18:23:36.842619,724,t,維園六四燭光晚會
2020-09-15T18:23:36.842619,2020-09-15T18:23:36.842619,725,t,維園燭光晚會
2020-09-15T18:23:36.842619,2020-09-15T18:23:36.842619,726,t,香港六四燭光晚會
2020-09-15T18:23:36.842619,2020-09-15T18:23:36.842619,727,t,38軍
2020-09-15T18:23:36.842619,2020-09-15T18:23:36.842619,728,t,中國人民解放軍第38集團軍
2020-09-15T18:23:36.842619,2020-09-15T18:23:36.842619,729,t,民運歌曲
2020-09-15T18:23:36.842619,2020-09-15T18:23:36.842619,730,t,民主歌聲獻中華
2020-09-15T18:23:36.842619,2020-09-15T18:23:36.842619,731,t,血染的風采
2020-09-15T18:23:36.842619,2020-09-15T18:23:36.842619,732,t,人民不會忘記
2020-09-15T18:23:36.842619,2020-09-15T18:23:36.842619,733,t,惡搞
2020-09-15T18:23:36.842619,2020-09-15T18:23:36.842619,734,t,炸藥
2020-09-15T18:23:36.842619,2020-09-15T18:23:36.842619,735,t,燃燒彈
2020-09-15T18:23:36.842619,2020-09-15T18:23:36.842619,736,t,燒夷彈
2020-09-15T18:23:36.842619,2020-09-15T18:23:36.842619,737,t,俄羅斯
2020-09-15T18:23:36.842619,2020-09-15T18:23:36.842619,738,t,觀音法門
2020-09-15T18:23:36.842619,2020-09-15T18:23:36.842619,739,t,大屠殺列表
2020-09-15T18:23:36.842619,2020-09-15T18:23:36.842619,740,t,獨立進行曲
2020-09-15T18:23:36.842619,2020-09-15T18:23:36.842619,741,t,2012年人類滅亡說
